TIME_OF_DAY;No;Yes
08:00:00;0.8032876712328767;0.1967123287671233
08:05:00;0.7764383561643836;0.22356164383561644
08:10:00;0.8071232876712329;0.19287671232876713
08:15:00;0.8104109589041096;0.18958904109589042
08:20:00;0.795068493150685;0.20493150684931508
08:25:00;0.8038356164383562;0.19616438356164384
08:30:00;0.7917808219178082;0.20821917808219179
08:35:00;0.8131506849315069;0.18684931506849314
08:40:00;0.8043835616438356;0.19561643835616438
08:45:00;0.8032876712328767;0.1967123287671233
08:50:00;0.8104109589041096;0.18958904109589042
08:55:00;0.8010958904109589;0.1989041095890411
09:00:00;0.7956164383561644;0.20438356164383562
09:05:00;0.8164383561643835;0.18356164383561643
09:10:00;0.8;0.2
09:15:00;0.8076712328767123;0.19232876712328767
09:20:00;0.8016438356164384;0.19835616438356166
09:25:00;0.7895890410958905;0.2104109589041096
09:30:00;0.7901369863013699;0.20986301369863014
09:35:00;0.8021917808219178;0.1978082191780822
09:40:00;0.7945205479452054;0.2054794520547945
09:45:00;0.8;0.2
09:50:00;0.7983561643835616;0.20164383561643837
09:55:00;0.812054794520548;0.18794520547945207
10:00:00;0.8043835616438356;0.19561643835616438
10:05:00;0.8016438356164384;0.19835616438356166
10:10:00;0.8087671232876712;0.19123287671232878
10:15:00;0.7983561643835616;0.20164383561643837
10:20:00;0.8208219178082192;0.17917808219178083
10:25:00;0.8082191780821918;0.1917808219178082
10:30:00;0.8136986301369863;0.1863013698630137
10:35:00;0.8054794520547945;0.19452054794520549
10:40:00;0.7934246575342466;0.20657534246575343
10:45:00;0.8027397260273973;0.19726027397260273
10:50:00;0.7945205479452054;0.2054794520547945
10:55:00;0.804931506849315;0.19506849315068492
11:00:00;0.8920547945205479;0.10794520547945205
11:02:00;0.8898630136986302;0.11013698630136987
11:04:00;0.8991780821917809;0.10082191780821918
11:06:00;0.9008219178082192;0.09917808219178083
11:08:00;0.9063013698630137;0.0936986301369863
11:10:00;0.9013698630136986;0.09863013698630137
11:12:00;0.9002739726027398;0.09972602739726028
11:14:00;0.8904109589041096;0.1095890410958904
11:16:00;0.9084931506849315;0.09150684931506849
11:18:00;0.8942465753424658;0.10575342465753425
11:20:00;0.9063013698630137;0.0936986301369863
11:22:00;0.9106849315068493;0.08931506849315068
11:24:00;0.8991780821917809;0.10082191780821918
11:26:00;0.9046575342465754;0.09534246575342466
11:28:00;0.8904109589041096;0.1095890410958904
11:30:00;0.9057534246575343;0.09424657534246575
11:32:00;0.9057534246575343;0.09424657534246575
11:34:00;0.8975342465753424;0.10246575342465754
11:36:00;0.9041095890410958;0.0958904109589041
11:38:00;0.9035616438356164;0.09643835616438357
11:40:00;0.8898630136986302;0.11013698630136987
11:42:00;0.9106849315068493;0.08931506849315068
11:44:00;0.9057534246575343;0.09424657534246575
11:46:00;0.9035616438356164;0.09643835616438357
11:48:00;0.9046575342465754;0.09534246575342466
11:50:00;0.913972602739726;0.08602739726027397
11:52:00;0.8871232876712328;0.11287671232876713
11:54:00;0.903013698630137;0.09698630136986301
11:56:00;0.9008219178082192;0.09917808219178083
11:58:00;0.9068493150684932;0.09315068493150686
12:00:00;0.9063013698630137;0.0936986301369863
12:02:00;0.9013698630136986;0.09863013698630137
12:04:00;0.9041095890410958;0.0958904109589041
12:06:00;0.8991780821917809;0.10082191780821918
12:08:00;0.9035616438356164;0.09643835616438357
12:10:00;0.9019178082191781;0.09808219178082192
12:12:00;0.9095890410958904;0.09041095890410959
12:14:00;0.9123287671232877;0.08767123287671233
12:16:00;0.8986301369863013;0.10136986301369863
12:18:00;0.8991780821917809;0.10082191780821918
12:20:00;0.8942465753424658;0.10575342465753425
12:22:00;0.8887671232876713;0.11123287671232877
12:24:00;0.8936986301369862;0.1063013698630137
12:26:00;0.9073972602739726;0.0926027397260274
12:28:00;0.890958904109589;0.10904109589041096
12:30:00;0.9095890410958904;0.09041095890410959
12:32:00;0.8975342465753424;0.10246575342465754
12:34:00;0.9084931506849315;0.09150684931506849
12:36:00;0.8986301369863013;0.10136986301369863
12:38:00;0.9052054794520548;0.09479452054794521
12:40:00;0.9041095890410958;0.0958904109589041
12:42:00;0.9101369863013699;0.08986301369863013
12:44:00;0.9084931506849315;0.09150684931506849
12:46:00;0.9008219178082192;0.09917808219178083
12:48:00;0.8964383561643836;0.10356164383561643
12:50:00;0.9068493150684932;0.09315068493150686
12:52:00;0.9008219178082192;0.09917808219178083
12:54:00;0.9046575342465754;0.09534246575342466
12:56:00;0.9024657534246575;0.09753424657534246
12:58:00;0.8991780821917809;0.10082191780821918
13:00:00;0.6926027397260274;0.30739726027397263
13:04:00;0.6854794520547945;0.31452054794520545
13:08:00;0.6904109589041096;0.3095890410958904
13:12:00;0.7128767123287671;0.28712328767123285
13:16:00;0.6953424657534246;0.3046575342465753
13:20:00;0.6843835616438356;0.3156164383561644
13:24:00;0.690958904109589;0.30904109589041096
13:28:00;0.7145205479452055;0.2854794520547945
13:32:00;0.7145205479452055;0.2854794520547945
13:36:00;0.6947945205479452;0.3052054794520548
13:40:00;0.7057534246575342;0.29424657534246573
13:44:00;0.6997260273972603;0.30027397260273975
13:48:00;0.7084931506849315;0.2915068493150685
13:52:00;0.7041095890410959;0.2958904109589041
13:56:00;0.692054794520548;0.30794520547945203
14:00:00;0.7002739726027397;0.2997260273972603
14:04:00;0.7057534246575342;0.29424657534246573
14:08:00;0.675068493150685;0.32493150684931504
14:12:00;0.6893150684931507;0.31068493150684934
14:16:00;0.6969863013698631;0.303013698630137
14:20:00;0.6953424657534246;0.3046575342465753
14:24:00;0.6865753424657535;0.3134246575342466
14:28:00;0.7013698630136986;0.29863013698630136
14:32:00;0.7271232876712329;0.27287671232876715
14:36:00;0.6887671232876712;0.31123287671232874
14:40:00;0.6821917808219178;0.3178082191780822
14:44:00;0.6904109589041096;0.3095890410958904
14:48:00;0.6964383561643835;0.30356164383561646
14:52:00;0.7052054794520548;0.2947945205479452
14:56:00;0.701917808219178;0.2980821917808219
15:00:00;0.6931506849315069;0.30684931506849317
15:04:00;0.703013698630137;0.29698630136986304
15:08:00;0.7013698630136986;0.29863013698630136
15:12:00;0.6991780821917808;0.30082191780821915
15:16:00;0.7205479452054795;0.27945205479452057
15:20:00;0.709041095890411;0.290958904109589
15:24:00;0.6898630136986301;0.3101369863013699
15:28:00;0.6969863013698631;0.303013698630137
15:32:00;0.6969863013698631;0.303013698630137
15:36:00;0.6975342465753425;0.30246575342465754
15:40:00;0.7161643835616438;0.28383561643835614
15:44:00;0.6832876712328767;0.3167123287671233
15:48:00;0.7057534246575342;0.29424657534246573
15:52:00;0.6975342465753425;0.30246575342465754
15:56:00;0.7041095890410959;0.2958904109589041
16:00:00;0.6964383561643835;0.30356164383561646
16:04:00;0.6843835616438356;0.3156164383561644
16:08:00;0.6986301369863014;0.3013698630136986
16:12:00;0.6991780821917808;0.30082191780821915
16:16:00;0.690958904109589;0.30904109589041096
16:20:00;0.6926027397260274;0.30739726027397263
16:24:00;0.6969863013698631;0.303013698630137
16:28:00;0.690958904109589;0.30904109589041096
16:32:00;0.703013698630137;0.29698630136986304
16:36:00;0.7052054794520548;0.2947945205479452
16:40:00;0.6745205479452054;0.3254794520547945
16:44:00;0.6936986301369863;0.3063013698630137
16:48:00;0.7095890410958904;0.29041095890410956
16:52:00;0.6904109589041096;0.3095890410958904
16:56:00;0.7024657534246576;0.29753424657534244
17:00:00;0.6942465753424657;0.30575342465753425
17:04:00;0.709041095890411;0.290958904109589
17:08:00;0.6865753424657535;0.3134246575342466
17:12:00;0.684931506849315;0.3150684931506849
17:16:00;0.7002739726027397;0.2997260273972603
17:20:00;0.707945205479452;0.29205479452054794
17:24:00;0.7210958904109589;0.2789041095890411
17:28:00;0.7123287671232876;0.2876712328767123
17:32:00;0.6893150684931507;0.31068493150684934
17:36:00;0.6986301369863014;0.3013698630136986
17:40:00;0.6898630136986301;0.3101369863013699
17:44:00;0.6904109589041096;0.3095890410958904
17:48:00;0.6810958904109589;0.3189041095890411
17:52:00;0.7057534246575342;0.29424657534246573
17:56:00;0.7046575342465753;0.29534246575342465
